%YAML 1.1
%TAG !u! tag:unity3d.com,2011:
--- !u!114 &11400000
MonoBehaviour:
  m_ObjectHideFlags: 0
  m_CorrespondingSourceObject: {fileID: 0}
  m_PrefabInstance: {fileID: 0}
  m_PrefabAsset: {fileID: 0}
  m_GameObject: {fileID: 0}
  m_Enabled: 1
  m_EditorHideFlags: 0
  m_Script: {fileID: 11500000, guid: 508f5b2d273f6777b9d591d92f3c0b19, type: 3}
  m_Name: Shield
  m_EditorClassIdentifier: 
  Display: {fileID: 21300000, guid: b97c91e8b348f3f4ebdc11f5c82182cd, type: 3}
  Passive: {fileID: 11400000, guid: fd39e74f413a3d1479d007212af3a682, type: 2}
  Active: {fileID: 11400000, guid: 231c96f3fa006d94fac1cff1015da761, type: 2}
  ActiveCooldown: 5
  Consumable: 0
