%YAML 1.1
%TAG !u! tag:unity3d.com,2011:
--- !u!114 &11400000
MonoBehaviour:
  m_ObjectHideFlags: 0
  m_CorrespondingSourceObject: {fileID: 0}
  m_PrefabInstance: {fileID: 0}
  m_PrefabAsset: {fileID: 0}
  m_GameObject: {fileID: 0}
  m_Enabled: 1
  m_EditorHideFlags: 0
  m_Script: {fileID: 11500000, guid: 03e20b31ef4749842894d75b2fbbab02, type: 3}
  m_Name: Bow Active
  m_EditorClassIdentifier: 
  IsHoming: 0
  Filter: 2
  Modifier:
    Heal: 0
    Damage: 0.7
    Effect:
      AddResource:
        health: 0
        movementSpeed: 0
        attack: 0
        attackSpeed: 0
        attackRange: 0
        armour: 0
        abilityPower: 0
      UniqueName: 
      Duration: 0
    AbilityPowerScaling: 0.4
  ProjectilePrefab: {fileID: 3478171338664135863, guid: f7850df73edd46c44a8943df7e6e2d07,
    type: 3}
  Range: 4
