%YAML 1.1
%TAG !u! tag:unity3d.com,2011:
--- !u!114 &11400000
MonoBehaviour:
  m_ObjectHideFlags: 0
  m_CorrespondingSourceObject: {fileID: 0}
  m_PrefabInstance: {fileID: 0}
  m_PrefabAsset: {fileID: 0}
  m_GameObject: {fileID: 0}
  m_Enabled: 1
  m_EditorHideFlags: 0
  m_Script: {fileID: 11500000, guid: 0ad920fd86262ac7e83ccc272377d7c1, type: 3}
  m_Name: Orc Captain Gems
  m_EditorClassIdentifier: 
  Display: {fileID: 21300000, guid: 041e86fb0472ff4509bf6afbc31ca024, type: 3}
  Passive: {fileID: 0}
  Active: {fileID: 0}
  ActiveCooldown: 0
  Consumable: 0
  Average: 3
  Variation: 1
