%YAML 1.1
%TAG !u! tag:unity3d.com,2011:
--- !u!114 &11400000
MonoBehaviour:
  m_ObjectHideFlags: 0
  m_CorrespondingSourceObject: {fileID: 0}
  m_PrefabInstance: {fileID: 0}
  m_PrefabAsset: {fileID: 0}
  m_GameObject: {fileID: 0}
  m_Enabled: 1
  m_EditorHideFlags: 0
  m_Script: {fileID: 11500000, guid: 3c50e3adca1aba56cba8a644bdff7ac0, type: 3}
  m_Name: Orc Grunt Drops
  m_EditorClassIdentifier: 
  ItemDrops:
  - {fileID: 11400000, guid: 9f3cf3f0787b54f9e94d0c5430a98971, type: 2}
  - {fileID: 11400000, guid: bf9c9e263f4559d459eadd91e731b6ff, type: 2}
  - {fileID: 11400000, guid: 6061ea55af226bd46846105cc89b001e, type: 2}
  DropRates:
  - 1
  - 0.16
  - 0.16
