%YAML 1.1
%TAG !u! tag:unity3d.com,2011:
--- !u!114 &11400000
MonoBehaviour:
  m_ObjectHideFlags: 0
  m_CorrespondingSourceObject: {fileID: 0}
  m_PrefabInstance: {fileID: 0}
  m_PrefabAsset: {fileID: 0}
  m_GameObject: {fileID: 0}
  m_Enabled: 1
  m_EditorHideFlags: 0
  m_Script: {fileID: 11500000, guid: 3c50e3adca1aba56cba8a644bdff7ac0, type: 3}
  m_Name: Robot Drops
  m_EditorClassIdentifier: 
  ItemDrops:
  - {fileID: 11400000, guid: 7cf22ad2fbdd175408dd81286d6445ca, type: 2}
  - {fileID: 11400000, guid: 70200acca7db107469c8294849b2b35d, type: 2}
  - {fileID: 11400000, guid: 40af7fcd450b28f48990eb27b32f5979, type: 2}
  DropRates:
  - 0.16
  - 0.16
  - 1
