%YAML 1.1
%TAG !u! tag:unity3d.com,2011:
--- !u!114 &11400000
MonoBehaviour:
  m_ObjectHideFlags: 0
  m_CorrespondingSourceObject: {fileID: 0}
  m_PrefabInstance: {fileID: 0}
  m_PrefabAsset: {fileID: 0}
  m_GameObject: {fileID: 0}
  m_Enabled: 1
  m_EditorHideFlags: 0
  m_Script: {fileID: 11500000, guid: 508f5b2d273f6777b9d591d92f3c0b19, type: 3}
  m_Name: Boots
  m_EditorClassIdentifier: 
  Display: {fileID: 21300000, guid: e420c5bc93cb2604695a893500c897e3, type: 3}
  Passive: {fileID: 11400000, guid: 36adab89a3c575c4e85a07f7bc51cf10, type: 2}
  Active: {fileID: 0}
  ActiveCooldown: 0
  Consumable: 0
