%YAML 1.1
%TAG !u! tag:unity3d.com,2011:
--- !u!114 &11400000
MonoBehaviour:
  m_ObjectHideFlags: 0
  m_CorrespondingSourceObject: {fileID: 0}
  m_PrefabInstance: {fileID: 0}
  m_PrefabAsset: {fileID: 0}
  m_GameObject: {fileID: 0}
  m_Enabled: 1
  m_EditorHideFlags: 0
  m_Script: {fileID: 11500000, guid: 508f5b2d273f6777b9d591d92f3c0b19, type: 3}
  m_Name: Cloak
  m_EditorClassIdentifier: 
  Display: {fileID: 21300000, guid: 6fc27c9d7fc2d9448af6851bf935e6d2, type: 3}
  Passive: {fileID: 11400000, guid: cd9483417ee5d3f4cb71b804d07ac72c, type: 2}
  Active: {fileID: 11400000, guid: 1cc228bf7f345e245a3d0fb1aef8d675, type: 2}
  ActiveCooldown: 5
  Consumable: 0
