%YAML 1.1
%TAG !u! tag:unity3d.com,2011:
--- !u!114 &11400000
MonoBehaviour:
  m_ObjectHideFlags: 0
  m_CorrespondingSourceObject: {fileID: 0}
  m_PrefabInstance: {fileID: 0}
  m_PrefabAsset: {fileID: 0}
  m_GameObject: {fileID: 0}
  m_Enabled: 1
  m_EditorHideFlags: 0
  m_Script: {fileID: 11500000, guid: 4040638d82204bd4ea14506cc491ed4a, type: 3}
  m_Name: Scroll Active
  m_EditorClassIdentifier: 
  Filter: 0
  Modifier:
    Heal: 0
    Damage: 0.4
    Effect:
      AddResource:
        health: 0
        movementSpeed: 0
        attack: 0
        attackSpeed: 0
        attackRange: 0
        armour: 0
        abilityPower: 0
      UniqueName: 
      Duration: 0
    AbilityPowerScaling: 0.6
  ProjectilePrefab: {fileID: 3436916852262451561, guid: 31f244ec1e452ca4aaa63ab755b56ec6,
    type: 3}
  Duration: 5
  CenterOnTile: 1
