%YAML 1.1
%TAG !u! tag:unity3d.com,2011:
--- !u!114 &11400000
MonoBehaviour:
  m_ObjectHideFlags: 0
  m_CorrespondingSourceObject: {fileID: 0}
  m_PrefabInstance: {fileID: 0}
  m_PrefabAsset: {fileID: 0}
  m_GameObject: {fileID: 0}
  m_Enabled: 1
  m_EditorHideFlags: 0
  m_Script: {fileID: 11500000, guid: 5e709b62bf5c432deae34496ef89c78d, type: 3}
  m_Name: Helmet Passive
  m_EditorClassIdentifier: 
  Modifier:
    Heal: 0
    Damage: 0
    Effect:
      AddResource:
        health: 0
        movementSpeed: 0
        attack: 0
        attackSpeed: 0
        attackRange: 0
        armour: 4
        abilityPower: 0
      UniqueName: Head
      Duration: 0
    AbilityPowerScaling: 0
