%YAML 1.1
%TAG !u! tag:unity3d.com,2011:
--- !u!114 &11400000
MonoBehaviour:
  m_ObjectHideFlags: 0
  m_CorrespondingSourceObject: {fileID: 0}
  m_PrefabInstance: {fileID: 0}
  m_PrefabAsset: {fileID: 0}
  m_GameObject: {fileID: 0}
  m_Enabled: 1
  m_EditorHideFlags: 0
  m_Script: {fileID: 11500000, guid: 508f5b2d273f6777b9d591d92f3c0b19, type: 3}
  m_Name: Gloves
  m_EditorClassIdentifier: 
  Display: {fileID: 21300000, guid: d4f5634edede200468fc1ccf30e6f3a1, type: 3}
  Passive: {fileID: 11400000, guid: 616987d8d7cb87e468cca50874c1b737, type: 2}
  Active: {fileID: 0}
  ActiveCooldown: 0
  Consumable: 0
